<?xml version="1.0" encoding="utf-8"?>
<!DOCTYPE svg PUBLIC "-//W3C//DTD SVG 1.1//EN" "http://www.w3.org/Graphics/SVG/1.1/DTD/svg11.dtd">

<svg version="1.1" id="ebene1" xmlns="http://www.w3.org/2000/svg" xmlns:xlink="http://www.w3.org/1999/xlink" x="0px" y="0px"
   viewBox="0 0 10 10" enable-background="new 0 0 10 10" xml:space="preserve">
  <style>
     circle,
     path {
       stroke: #FFFFFF;
       stroke-width: 1.5;
       fill: none;
     }
   </style>
  <rect x="0" y="0" width="10" height="10" fill="none" />
  <path d="M2.5,4.5 L2.5,3 A2.5,2.5 180 0 1 7.5,3 L7.5,4" />
  <rect x="1.5" y="4.5" width="7" height="4.5" stroke="#FFFFFF" stroke-width="1.5" fill="none"/>
  <path d="M5,6.5 L7,6.5" />
</svg>
